{
    "SERVICE_FIELDS_METADATA": [
        {
            "key": "description",
            "required": false,
            "editable": true,
            "isEmptyAllowed": true,
            "type": "String"
        },
        {
            "key": "email",
            "required": false,
            "editable": true,
            "isEmptyAllowed": true,
            "type": "String"
        },
        {
            "key": "slack_channel",
            "required": false,
            "editable": true,
            "isEmptyAllowed": true,
            "type": "String"
        },
        {
            "key": "tags",
            "required": false,
            "editable": true,
            "isEmptyAllowed": true,
            "type": "Array"
        },
        {
            "key": "repository",
            "required": false,
            "editable": true,
            "isEmptyAllowed": false,
            "type": "String"
        },
        {
            "key": "service",
            "required": true,
            "editable": false,
            "isEmptyAllowed": false,
            "type": "String"
        },
        {
            "key": "domain",
            "required": true,
            "editable": false,
            "isEmptyAllowed": false,
            "type": "String"
        },
        {
            "key": "type",
            "required": true,
            "editable": false,
            "isEmptyAllowed": false,
            "type": "String"
        },
        {
            "key": "created_by",
            "required": true,
            "editable": false,
            "isEmptyAllowed": false,
            "type": "String"
        },
        {
            "key": "status",
            "required": true,
            "editable": true,
            "isEmptyAllowed": false,
            "type": "String"
        },
        {
            "key": "runtime",
            "required": true,
            "editable": false,
            "isEmptyAllowed": false,
            "type": "String"
        },
        {
            "key": "region",
            "required": false,
            "editable": true,
            "isEmptyAllowed": false,
            "type": "Array"
        },
        {
            "key": "is_public_endpoint",
            "required": false,
            "editable": true,
            "isEmptyAllowed": false,
            "type": "Boolean"
        },
        {
            "key": "provider",
            "required": false,
            "editable": true,
            "isEmptyAllowed": false,
            "type": "String"
        },
        {
            "key": "metadata",
            "required": false,
            "editable": true,
            "isEmptyAllowed": false,
            "type": "Object"
        }       
    ],
    "SERVICE_STATUS": [
        "creation_started",
        "creation_failed",
        "creation_completed",
        "deletion_started",
        "deletion_failed",
        "deletion_completed",
        "active",
        "inactive"
    ],
    "SERVICE_RUNTIMES": ["nodejs", "python", "java", "c#"],
    "PROVIDER": ["AWS", "AZURE"],
    "TYPE_FIELD_KEY": "type",
    "SERVICE_INTER_DEPENDENT_FIELDS_MAP": [
        {
            "type": "api",
            "fields": [
                {
                    "key": "runtime"
                }
            ]
        },
        {
            "type": "function",
            "fields": [
                {
                    "key": "runtime"
                }
            ]
        },
        {
            "type": "website",
            "fields": []
        }
    ]
}