{
    "services_table": "jazzazfxn_services_stg",
    "service_required_fields": ["provider","service", "domain", "type", "created_by", "runtime", "status"],
    "service_update_fields": ["description", "email", "slack_channel", "tags", "repository", "status","metadata","is_public_endpoint"],
    "service_filter_params": ["service", "domain", "region", "type", "runtime", "created_by", "status"],
    "service_optional_fields": ["description", "region", "repository", "email", "slack_channel", "tags", "status","metadata","is_public_endpoint"],
    "service_return_fields": ["service", "domain", "type", "created_by", "runtime", "description", "region", "repository", "email", "slack_channel", "tags", "status","metadata","is_public_endpoint"],
    "service_status_values": ["active", "inactive", "creation_started", "creation_failed", "creation_completed", "deletion_started", "deletion_failed", "deletion_completed"],
    "ddb-region" : "{conf_region}",
    "admin_users": "jaya.krishna@t-mobile.com"
}
